{
  "project_info": {
    "project_number": "392138629370",
    "firebase_url": "https://raivendedores.firebaseio.com",
    "project_id": "raivendedores",
    "storage_bucket": "raivendedores.appspot.com"
  },
  "client": [
    {
      "client_info": {
        "mobilesdk_app_id": "1:392138629370:android:5a283fdd413c51c4",
        "android_client_info": {
          "package_name": "org.rai.vendedores"
        }
      },
      "oauth_client": [
        {
          "client_id": "392138629370-8bpmplrtc9m53t0io7o1o8ob0uu5phkd.apps.googleusercontent.com",
          "client_type": 3
        }
      ],
      "api_key": [
        {
          "current_key": "AIzaSyBJAnW_k3yb5Sqbv3sC9olKyy0wZVHF5Dk"
        }
      ],
      "services": {
        "analytics_service": {
          "status": 1
        },
        "appinvite_service": {
          "status": 1,
          "other_platform_oauth_client": []
        },
        "ads_service": {
          "status": 2
        }
      }
    }
  ],
  "configuration_version": "1"
}